{
	"$schema": "https://raw.githubusercontent.com/martinring/tmlanguage/master/tmlanguage.json",
	"name": "Eleanor",
	"patterns": [
		{
			"include": "#comments"
		},
		{
			"include": "#keywords"
		},
		{
			"include": "#functions-and-declarations"
		},
		{
			"include": "#types"
		},
		{
			"include": "#strings"
		},
		{
			"include": "#string-escaped-char"
		}
	],
	"repository": {
		"identifier": {
			"patterns": [
				{
					"match": "\\b[[:alpha:]_][[:alnum:]_]*\\b"
				}
			]
		},
		"type-chars": {
			"patterns": [
				{
					"match": "[[:alnum:]\\s,._^<>\\[\\]-]"
				}
			]
		},
		"screaming-identifier": {
			"patterns": [
				{
					"match": "\\b[A-Z_](?![a-z])[A-Z_0-9]+\\b"
				}
			]
		},
		"block-comment": {
			"patterns": [
				{
					"name": "comment.block",
					"begin": "/\\*",
					"end": "\\*/",
					"patterns": [
						{
							"include": "#block-comment"
						}
					]
				}
			]
		},
		"comments": {
			"patterns": [
				{
					"include": "#block-comment"
				},
				{
					"name": "comment.line.double-slash",
					"begin": "//",
					"end": "\n"
				}
			]
		},
		"keywords": {
			"patterns": [
				{
					"name": "keyword.control",
					"match": "\\b(defer|return|extern)\\b"
				},
				{
					"name": "keyword.control.conditional",
					"match": "\\b(if|elif|else|then|is|or)\\b"
				},
				{
					"name": "keyword.control",
					"match": "\\b(for|while|break|continue|default|pass|scope)\\b"
				},
				{
					"name": "constant.language",
					"match": "\\b(true|false|self)\\b"
				},
				{
					"name": "constant.numeric",
					"match": "\\b(\\d(\\d|_)*(.\\d(\\d|_)*)?)((e|E)(\\+|-)?\\d+)?[ijk]?\\b"
				},
				{
					"name": "constant.numeric",
					"match": "\\b((0b(0|1|_)+)|(0o(\\d|_)+)|(0d(\\d|_)+)|(0[xXh](\\h|_)+))[i]?\\b"
				},
				{
					"name": "storage.type",
					"match": "\\b(let|mut|do|end|def|struct|object|record|union|block|ref|array|ptr|slice|range|str|mod|module|in|out)\\b"
				}
			]
		},
		"functions-and-declarations": {
			"patterns": [
				{
					"captures": {
						"1": {
							"name": "entity.name.function"
						},
						"2": {
							"name": "storage.type"
						}
					},
					"match": "\\b({{#identifier}})\\b(proc|to)\\b"
				},
				{
					"captures": {
						"1": {
							"name": "entity.name.function"
						},
						"2": {
							"name": "keyword.control"
						},
						"3": {
							"name": "storage.type"
						}
					},
					"match": "\\b({{#identifier}})\\s*[:]\\s*[:]\\s*(inline|no_inline)\\s+(proc)"
				},
				{
					"captures": {
						"1": {
							"name": "support.function"
						}
					},
					"match": "({{identifier}})\\s*[!]?\\s*[\\(]"
				},
				{
					"captures": {
						"1": {
							"name": "meta.type.name"
						},
						"2": {
							"name": "storage.type"
						}
					},
					"match": "\\b({{identifier}})\\s*[:]\\s*[:]\\s*(struct|union|enum|bit_field)"
				}
			]
		},
		"types": {
			"patterns": [
				{
					"captures": {
						"1": {
							"name": "storage.type"
						},
						"2": {
							"name": "meta.block"
						},
						"3": {
							"name": "meta.block"
						}
					},
					"match": "\\b(struct|enum|union|bit_field)\\b(?:(\\{)(\\}))?"
				},
				{
					"name": "storage.type",
					"match": "\\b(import|use|proc|func|init|deinit|copy|to|type|value|global|local)\\b"
				},
				{
					"name": "meta.brackets",
					"captures": {
						"1": {
							"name": "punctuation.definition.brackets.begin"
						},
						"2": {
							"name": "constant.numeric"
						},
						"3": {
							"name": "punctuation.definition.brackets.end"
						}
					},
					"match": "(\\[)(\\d*)(\\])(?=[[:alpha:]_])"
				},
				{
					"name": "storage.type",
					"match": "\\$\\s*({{identifier}})"
				},
				{
					"include": "#basic-types"
				}
			]
		},
		"basic-types": {
			"patterns": [
				{
					"name": "storage.type",
					"match": "\\b((char|byte|short|int|long)|(ubyte|ushort|uint|ulong))\\b"
				},
				{
					"name": "storage.type",
					"match": "\\b(float|double)\\b"
				},
				{
					"name": "storage.type",
					"match": "\\b(bool)\\b"
				}
				,{
					"name": "storage.type",
					"match": "\\b(typeinfo|funcinfo)\\b"
				}
			]
		},
		"strings": {
			"patterns": [
				{
					"name": "string.quoted.double",
					"begin": "\"",
					"end": "\"",
					"patterns": [
						{
							"include": "#string-escaped-char"
						}
					]
				},
				{
					"name": "string.quoted.double",
					"begin": "`",
					"end": "`"
				},
				{
					"name": "string.quoted.single",
					"begin": "'",
					"end": "'",
					"patterns": [
						{
							"include": "#string-escaped-char"
						}
					]
				}
			],
			"repository": {
				"string-escaped-char": {
					"patterns": [
						{
							"name": "constant.character.escape",
							"match": "\\\\(\\\\|[abfnrutv''\"]|x\\h{2}|u\\h{4}|U\\h{8}|[0-7]{3})"
						},
						{
							"name": "invalid.illegal.unknown-escape",
							"match": "\\\\."
						}
					]
				}
			}
		}
	},
	"scopeName": "source.ela"
}